Content-Type: text/x-zim-wiki
Wiki-Format: zim 0.4
Creation-Date: 2019-01-09T18:24:22-06:00

====== Tekini ======

* [[+2020:20200702|Detener vsql cuando exista un error]]
* [[+2020:20200701|entr]]
* [[+2020:20200616|Esquema de colores personalizado en Vim]]
* [[+2020:20200606|Script con zenity para buscar en Wikipedia]]
* [[+2020:20200429|ffmpeg]]
* [[+2020:20200428|maximum number of clients reached]]
* [[+2020:20200426|tty-share + screen (multisuer+acl) + presentty + mumble]]
* [[+2020:20200420|presentty]]
* [[+2020:20200419|tty-share]]
* [[+2020:20200418|bash profile]]
* [[+2020:20200417|find con una variable en exec]]
* [[+2020:20200416|dwdiff]]
* [[+2020:20200415|seq --format]]
* [[+2020:20200412|gitlab.io]]
* [[+2020:20200326|cambiar color de la barra vertical en vim]]
* [[+2020:20200325|cambiar color de la barra de estado en vim]]
* [[+2020:20200324|leer la salida de un comando desde vim]]
* [[+2020:20200316|ajustar brillo de la pantalla]]
* [[+2020:20200311|Jathan DD]]
* [[+2019:20190110|Cambiando la extensión de zim]]
* [[+2017:20170524|Uso básico de screen]]
* [[+2017:20170119|Creación de llaves ssh]]
* [[+2016:20161205|Servidor web Zim por la red tor]]
* [[+2016:20160826|configuracion]][[+2016:20160826| resources en nativefier]]
* [[+2016:20160626|conectar vpnc usando zenity]]
* [[+2016:20160214|Pausar reproduccion de vlc por linea de comando]]
* [[+2015:20151231|Ian Murdock]]
* [[+2015:20150908|Coloreado de sintaxis en formato wiki para vim]]
* [[+2015:20150813|ttytter, tuiter en linea de comandos]]
* [[+2013:20130416|instalar sqlite en hpux]]
* [[+2012:20121120|Curso radiofonico historia del mexico antiguo]]
* [[+2012:20120810|mocp error]]
* [[+2012:20120413|reportar spam en Debian list]]
* [[+2012:20120405|convertir de decimal a hexadecimal]]
* [[+2012:20120311|arrancar vaio por usb]]
* [[+2012:20120310|script llamando a consola, whiptail y zenity]]
* [[+2012:20120309|generar secuencias]]
* [[+2012:20120308|convertir una letra en su codigo ascii]]
* [[+2012:20120307|cofradia necesita ayuda]]
* [[+2012:20120302|eliminar arcivos swap vim]]
* [[+2012:20120221|uuencode mailx]]
* [[+2012:20120220|vi :Terminal too wide]]
* [[+2012:20120219|imprimir log]]
* [[+2012:20120211|descarga cancion de soundcloud]]
* [[+2012:20120120|imprimir lineas especificas]]
* [[+2012:20120103|feed para G+]]
* [[+2011:20111230|Infografia Debian]]
* [[+2011:20111105|DebConf12]]
* [[+2011:20111104|Contrato social Debian]]
* [[+2011:20111026|crear conjunto personalizados de diagramas para dia]]
* [[+2011:20111021|permutacion de lineas]]
* [[+2011:20111005|resaltado de busquedas en vim]]
* [[+2011:20110724|llaves para ssh]]
* [[+2011:20110723|google calendar desde linea de comandos]]
* [[+2011:20110722|servicios de google desde linea de comandos]]
* [[+2011:20110721|antivirus en linux]]
* [[+2011:20110709|xlockmore]]
* [[+2011:20110630|asunder]]
* [[+2011:20110624|tmux]]
* [[+2011:20110623|Instalando Debian en vaio vgn-sz450fn]]
* [[+2011:20110622|twitter desde linea de comandos]]
* [[+2011:20110608|api soundcloud]]
* [[+2011:20110112|Busqueda manpages en firefox]]
* [[+2010:20100411|Error firefox]]
* [[+2010:20100303|alsa mute/unmute]]
* [[+2010:20100302|Matar evolution]]
* [[+2010:20100228|Extraer el audio de un flv]]
* [[+2009:20090323|Ajustar fecha]]
* [[+2009:20090308|bbrun]]
* [[+2009:20090226|yum]]
* [[+2009:20090211|Tabs en Fluxbox]]
* [[+2009:20090210|Cliente VPN Cisco en Linux]]
* [[+2008:20081215|Protector de pantalla (xlock)]]
* [[+2008:20081126|Renombrando identidad (hostname-username)]]
* [[+2008:20081112|Empleo del teclado en fluxbox]]
* [[+2008:20081111|Identificar teclas xev]]
* [[+2008:20081008|IE en Linux]]
* [[+2008:20080930|Conectarse a una BD Oracle]]
* [[+2008:20080926|SQL*Loader 282]]
* [[+2008:20080922|Escritorio remoto de winbugs]]
* [[+2008:20080414|Reglas para control de acceso en ldap-iplanet]]



--------------------
^{[tekini]} Obrero en nahuatl

