Content-Type: text/x-zim-wiki
Wiki-Format: zim 0.4
Creation-Date: 2020-06-28T00:46:54-05:00

====== Salir del 2020 ======
20200627

{{./pasted_image.png}}
[[http://turnoff.us/geek/escape-room/|turnoff]]
